…
``` r
app_get_inaugurals()
```

    ## # A tibble: 58 x 5
    ##    potus             date       word_count ia_id content                                                               
    ##    <chr>             <date>          <int> <chr> <chr>                                                                 
    ##  1 George Washington 1789-04-30       1431 25800 "Fellow-Citizens of the Senate and of the House of Representatives:\n…
    ##  2 George Washington 1793-03-04        135 25801 "Fellow Citizens:\nI AM again called upon by the voice of my country …
    ##  3 John Adams        1797-03-04       2321 25802 "WHEN it was first perceived, in early times, that no middle course f…
    ##  4 Thomas Jefferson  1801-03-04       1730 25803 "Friends and Fellow-Citizens:\nCALLED upon to undertake the duties of…
    ##  5 Thomas Jefferson  1805-03-04       2166 25804 "PROCEEDING, fellow-citizens, to that qualification which the Constit…
    ##  6 James Madison     1809-03-04       1177 25805 "Unwilling to depart from examples of the most revered authority, I a…
    ##  7 James Madison     1813-03-04       1211 25806 "About to add the solemnity of an oath to the obligations imposed by …
    ##  8 James Monroe      1817-03-04       3375 25807 "I should be destitute of feeling if I was not deeply affected by the…
    ##  9 James Monroe      1821-03-04       4472 25808 "Fellow-Citizens:\nI shall not attempt to describe the grateful emoti…
    ## 10 John Quincy Adams 1825-03-04       2915 25809 "In compliance with an usage coeval with the existence of our Federal…
    ## # ... with 48 more rows
